Manejo de datos con R
…
# Muestra aleatoria de resultados del ICFES
aux <- sample(dim(Icfes)[1],size = 2000)

library(dplyr)
Icfes2 <- tbl_df(Icfes[aux,])

Filtrar

Filtrar una base de datos

filter(Icfes2, DEPARTAMENTO == "ANTIOQUIA",
       NOMBREMUNICIPIO == "MEDELLIN")

## # A tibble: 84 x 24
##    CODINST NOMBREINSTITUCI~ CODIGOMUNICIPIO NOMBREMUNICIPIO DEPARTAMENTO
##    <chr>   <chr>            <chr>           <chr>           <chr>       
##  1 168682  CENTRO DE ESTUD~ 05001           MEDELLIN        ANTIOQUIA   
##  2 063552  INST EDUC SANTO~ 05001           MEDELLIN        ANTIOQUIA   
##  3 159665  I.E. JORGE ELIE~ 05001           MEDELLIN        ANTIOQUIA   
##  4 104414  INST EDUC LA LI~ 05001           MEDELLIN        ANTIOQUIA   
##  5 117671  COL ADVENTISTA ~ 05001           MEDELLIN        ANTIOQUIA   
##  6 035956  INST EDUC FELIX~ 05001           MEDELLIN        ANTIOQUIA   
##  7 056796  SEC ESC PAULO VI 05001           MEDELLIN        ANTIOQUIA   
##  8 164509  COL FUNDADORES ~ 05001           MEDELLIN        ANTIOQUIA   
##  9 139709  INST EDUC PICAC~ 05001           MEDELLIN        ANTIOQUIA   
## 10 001123  ESC NORMAL SUPE~ 05001           MEDELLIN        ANTIOQUIA   
## # ... with 74 more rows, and 19 more variables: CALENDARIO <chr>,
## #   NATURALEZA <chr>, JORNADA <chr>, EVALUADOS <dbl>, PROMLECTURACRITICA <dbl>,
## #   PROMMATEMATICA <dbl>, PROMSOCIALESYCIUDADANAS <dbl>,
## #   PROMCIENCIASNATURALES <dbl>, PROMINGLES <dbl>,
## #   PROMRAZONAMIENTOCUANTITA <dbl>, PROMCOMPETENCIASCIUDADAN <dbl>,
## #   DESVLECTURACRITICA <dbl>, DESVMATEMATICA <dbl>,
## #   DESVSOCIALESYCIUDADANAS <dbl>, DESVCIENCIASNATURALES <dbl>,
## #   DESVINGLES <dbl>, DESVRAZONAMIENTOCUANTITA <dbl>,
## #   DESVCOMPETENCIASCIUDADAN <dbl>, PERIODO <chr>

Icfes2 %>% filter(DEPARTAMENTO == "ANTIOQUIA",
                  NOMBREMUNICIPIO == "MEDELLIN")

## # A tibble: 84 x 24
##    CODINST NOMBREINSTITUCI~ CODIGOMUNICIPIO NOMBREMUNICIPIO DEPARTAMENTO
##    <chr>   <chr>            <chr>           <chr>           <chr>       
##  1 168682  CENTRO DE ESTUD~ 05001           MEDELLIN        ANTIOQUIA   
##  2 063552  INST EDUC SANTO~ 05001           MEDELLIN        ANTIOQUIA   
##  3 159665  I.E. JORGE ELIE~ 05001           MEDELLIN        ANTIOQUIA   
##  4 104414  INST EDUC LA LI~ 05001           MEDELLIN        ANTIOQUIA   
##  5 117671  COL ADVENTISTA ~ 05001           MEDELLIN        ANTIOQUIA   
##  6 035956  INST EDUC FELIX~ 05001           MEDELLIN        ANTIOQUIA   
##  7 056796  SEC ESC PAULO VI 05001           MEDELLIN        ANTIOQUIA   
##  8 164509  COL FUNDADORES ~ 05001           MEDELLIN        ANTIOQUIA   
##  9 139709  INST EDUC PICAC~ 05001           MEDELLIN        ANTIOQUIA   
## 10 001123  ESC NORMAL SUPE~ 05001           MEDELLIN        ANTIOQUIA   
## # ... with 74 more rows, and 19 more variables: CALENDARIO <chr>,
## #   NATURALEZA <chr>, JORNADA <chr>, EVALUADOS <dbl>, PROMLECTURACRITICA <dbl>,
## #   PROMMATEMATICA <dbl>, PROMSOCIALESYCIUDADANAS <dbl>,
## #   PROMCIENCIASNATURALES <dbl>, PROMINGLES <dbl>,
## #   PROMRAZONAMIENTOCUANTITA <dbl>, PROMCOMPETENCIASCIUDADAN <dbl>,
## #   DESVLECTURACRITICA <dbl>, DESVMATEMATICA <dbl>,
## #   DESVSOCIALESYCIUDADANAS <dbl>, DESVCIENCIASNATURALES <dbl>,
## #   DESVINGLES <dbl>, DESVRAZONAMIENTOCUANTITA <dbl>,
## #   DESVCOMPETENCIASCIUDADAN <dbl>, PERIODO <chr>

Selección filas

Selección de posiciones específicas de una base de datos

slice(Icfes2, 100:150)

## # A tibble: 51 x 24
##    CODINST NOMBREINSTITUCI~ CODIGOMUNICIPIO NOMBREMUNICIPIO DEPARTAMENTO
##    <chr>   <chr>            <chr>           <chr>           <chr>       
##  1 106971  I.E. TOQUILLA -~ 15047           AQUITANIA       BOYACA      
##  2 056606  INSTITUCION EDU~ 08638           SABANALARGA     ATLANTICO   
##  3 132738  I.E. JUAN IGNAC~ 19845           VILLA RICA      CAUCA       
##  4 139923  INSTITUCION EDU~ 70001           SINCELEJO       SUCRE       
##  5 052332  COLEGIO DE LA I~ 25754           SOACHA          CUNDINAMARCA
##  6 140111  SALUDCOOP SUR (~ 11001           BOGOTÁ D.C.     BOGOTA      
##  7 060491  COLEGIO AGROPOP~ 17513           PACORA          CALDAS      
##  8 076661  INSTITUCION EDU~ 17442           MARMATO         CALDAS      
##  9 046201  JOSE ANTONIO AG~ 76670           SAN PEDRO       VALLE       
## 10 149112  CORPORACIÓN EDU~ 50001           VILLAVICENCIO   META        
## # ... with 41 more rows, and 19 more variables: CALENDARIO <chr>,
## #   NATURALEZA <chr>, JORNADA <chr>, EVALUADOS <dbl>, PROMLECTURACRITICA <dbl>,
## #   PROMMATEMATICA <dbl>, PROMSOCIALESYCIUDADANAS <dbl>,
## #   PROMCIENCIASNATURALES <dbl>, PROMINGLES <dbl>,
## #   PROMRAZONAMIENTOCUANTITA <dbl>, PROMCOMPETENCIASCIUDADAN <dbl>,
## #   DESVLECTURACRITICA <dbl>, DESVMATEMATICA <dbl>,
## #   DESVSOCIALESYCIUDADANAS <dbl>, DESVCIENCIASNATURALES <dbl>,
## #   DESVINGLES <dbl>, DESVRAZONAMIENTOCUANTITA <dbl>,
## #   DESVCOMPETENCIASCIUDADAN <dbl>, PERIODO <chr>

Icfes2 %>%
  slice(100:150)

## # A tibble: 51 x 24
##    CODINST NOMBREINSTITUCI~ CODIGOMUNICIPIO NOMBREMUNICIPIO DEPARTAMENTO
##    <chr>   <chr>            <chr>           <chr>           <chr>       
##  1 106971  I.E. TOQUILLA -~ 15047           AQUITANIA       BOYACA      
##  2 056606  INSTITUCION EDU~ 08638           SABANALARGA     ATLANTICO   
##  3 132738  I.E. JUAN IGNAC~ 19845           VILLA RICA      CAUCA       
##  4 139923  INSTITUCION EDU~ 70001           SINCELEJO       SUCRE       
##  5 052332  COLEGIO DE LA I~ 25754           SOACHA          CUNDINAMARCA
##  6 140111  SALUDCOOP SUR (~ 11001           BOGOTÁ D.C.     BOGOTA      
##  7 060491  COLEGIO AGROPOP~ 17513           PACORA          CALDAS      
##  8 076661  INSTITUCION EDU~ 17442           MARMATO         CALDAS      
##  9 046201  JOSE ANTONIO AG~ 76670           SAN PEDRO       VALLE       
## 10 149112  CORPORACIÓN EDU~ 50001           VILLAVICENCIO   META        
## # ... with 41 more rows, and 19 more variables: CALENDARIO <chr>,
## #   NATURALEZA <chr>, JORNADA <chr>, EVALUADOS <dbl>, PROMLECTURACRITICA <dbl>,
## #   PROMMATEMATICA <dbl>, PROMSOCIALESYCIUDADANAS <dbl>,
## #   PROMCIENCIASNATURALES <dbl>, PROMINGLES <dbl>,
## #   PROMRAZONAMIENTOCUANTITA <dbl>, PROMCOMPETENCIASCIUDADAN <dbl>,
## #   DESVLECTURACRITICA <dbl>, DESVMATEMATICA <dbl>,
## #   DESVSOCIALESYCIUDADANAS <dbl>, DESVCIENCIASNATURALES <dbl>,
## #   DESVINGLES <dbl>, DESVRAZONAMIENTOCUANTITA <dbl>,
## #   DESVCOMPETENCIASCIUDADAN <dbl>, PERIODO <chr>

Ordenar

Ordenar la base de datos

arrange(Icfes2, DEPARTAMENTO)

## # A tibble: 2,000 x 24
##    CODINST NOMBREINSTITUCI~ CODIGOMUNICIPIO NOMBREMUNICIPIO DEPARTAMENTO
##    <chr>   <chr>            <chr>           <chr>           <chr>       
##  1 117358  I.E. SAGRADO CO~ 91001           LETICIA         AMAZONAS    
##  2 128397  I.E. INTERNADO ~ 91669           PTO SANTANDER   AMAZONAS    
##  3 087445  I.E. COLEGIO IN~ 91405           LA CHORRERA     AMAZONAS    
##  4 065482  I.E. INDIGENA S~ 91001           LETICIA         AMAZONAS    
##  5 116897  I.E. INTERNADO ~ 91540           PUERTO NARIÑO   AMAZONAS    
##  6 153510  COL  NAVAL AF-4~ 91001           LETICIA         AMAZONAS    
##  7 176198  I.E. INEM JOSE ~ 91001           LETICIA         AMAZONAS    
##  8 145987  I.E.R. HOJAS AN~ 05318           GUARNE          ANTIOQUIA   
##  9 127605  I. E. ROSA MARI~ 05756           SONSON          ANTIOQUIA   
## 10 155242  I. E. R. INDIGE~ 05172           CHIGORODO       ANTIOQUIA   
## # ... with 1,990 more rows, and 19 more variables: CALENDARIO <chr>,
## #   NATURALEZA <chr>, JORNADA <chr>, EVALUADOS <dbl>, PROMLECTURACRITICA <dbl>,
## #   PROMMATEMATICA <dbl>, PROMSOCIALESYCIUDADANAS <dbl>,
## #   PROMCIENCIASNATURALES <dbl>, PROMINGLES <dbl>,
## #   PROMRAZONAMIENTOCUANTITA <dbl>, PROMCOMPETENCIASCIUDADAN <dbl>,
## #   DESVLECTURACRITICA <dbl>, DESVMATEMATICA <dbl>,
## #   DESVSOCIALESYCIUDADANAS <dbl>, DESVCIENCIASNATURALES <dbl>,
## #   DESVINGLES <dbl>, DESVRAZONAMIENTOCUANTITA <dbl>,
## #   DESVCOMPETENCIASCIUDADAN <dbl>, PERIODO <chr>

arrange(Icfes2, DEPARTAMENTO, NOMBREINSTITUCION)

## # A tibble: 2,000 x 24
##    CODINST NOMBREINSTITUCI~ CODIGOMUNICIPIO NOMBREMUNICIPIO DEPARTAMENTO
##    <chr>   <chr>            <chr>           <chr>           <chr>       
##  1 153510  COL  NAVAL AF-4~ 91001           LETICIA         AMAZONAS    
##  2 087445  I.E. COLEGIO IN~ 91405           LA CHORRERA     AMAZONAS    
##  3 065482  I.E. INDIGENA S~ 91001           LETICIA         AMAZONAS    
##  4 176198  I.E. INEM JOSE ~ 91001           LETICIA         AMAZONAS    
##  5 128397  I.E. INTERNADO ~ 91669           PTO SANTANDER   AMAZONAS    
##  6 116897  I.E. INTERNADO ~ 91540           PUERTO NARIÑO   AMAZONAS    
##  7 117358  I.E. SAGRADO CO~ 91001           LETICIA         AMAZONAS    
##  8 135723  ACADEMIA POLITE~ 05360           ITAGUI          ANTIOQUIA   
##  9 186155  C. E. R. ALTO D~ 05756           SONSON          ANTIOQUIA   
## 10 172833  C. E. R. LAUREA~ 05756           SONSON          ANTIOQUIA   
## # ... with 1,990 more rows, and 19 more variables: CALENDARIO <chr>,
## #   NATURALEZA <chr>, JORNADA <chr>, EVALUADOS <dbl>, PROMLECTURACRITICA <dbl>,
## #   PROMMATEMATICA <dbl>, PROMSOCIALESYCIUDADANAS <dbl>,
## #   PROMCIENCIASNATURALES <dbl>, PROMINGLES <dbl>,
## #   PROMRAZONAMIENTOCUANTITA <dbl>, PROMCOMPETENCIASCIUDADAN <dbl>,
## #   DESVLECTURACRITICA <dbl>, DESVMATEMATICA <dbl>,
## #   DESVSOCIALESYCIUDADANAS <dbl>, DESVCIENCIASNATURALES <dbl>,
## #   DESVINGLES <dbl>, DESVRAZONAMIENTOCUANTITA <dbl>,
## #   DESVCOMPETENCIASCIUDADAN <dbl>, PERIODO <chr>

arrange(Icfes2, PROMLECTURACRITICA)

## # A tibble: 2,000 x 24
##    CODINST NOMBREINSTITUCI~ CODIGOMUNICIPIO NOMBREMUNICIPIO DEPARTAMENTO
##    <chr>   <chr>            <chr>           <chr>           <chr>       
##  1 196931  ESCOL RUR INDIG~ 27150           CARMEN DEL DAR~ CHOCO       
##  2 155242  I. E. R. INDIGE~ 05172           CHIGORODO       ANTIOQUIA   
##  3 195289  INSTITUTO ANTON~ 08758           SOLEDAD         ATLANTICO   
##  4 099598  COL RAMON LOZAN~ 27001           QUIBDO          CHOCO       
##  5 182253  COLEGIO TECNICO~ 19809           TIMBIQUI        CAUCA       
##  6 175042  INST  AGRO  PIO~ 66572           PUEBLO RICO     RISARALDA   
##  7 148130  LA ULLOA         41615           RIVERA          HUILA       
##  8 128660  IE DIEGO LUIS C~ 27425           MEDIO ATRATO    CHOCO       
##  9 195644  COLEGIO LAS CHA~ 05490           NECOCLI         ANTIOQUIA   
## 10 104166  INSTITUCIÓN EDU~ 25297           GACHETA         CUNDINAMARCA
## # ... with 1,990 more rows, and 19 more variables: CALENDARIO <chr>,
## #   NATURALEZA <chr>, JORNADA <chr>, EVALUADOS <dbl>, PROMLECTURACRITICA <dbl>,
## #   PROMMATEMATICA <dbl>, PROMSOCIALESYCIUDADANAS <dbl>,
## #   PROMCIENCIASNATURALES <dbl>, PROMINGLES <dbl>,
## #   PROMRAZONAMIENTOCUANTITA <dbl>, PROMCOMPETENCIASCIUDADAN <dbl>,
## #   DESVLECTURACRITICA <dbl>, DESVMATEMATICA <dbl>,
## #   DESVSOCIALESYCIUDADANAS <dbl>, DESVCIENCIASNATURALES <dbl>,
## #   DESVINGLES <dbl>, DESVRAZONAMIENTOCUANTITA <dbl>,
## #   DESVCOMPETENCIASCIUDADAN <dbl>, PERIODO <chr>

arrange(Icfes2, desc(PROMLECTURACRITICA))

## # A tibble: 2,000 x 24
##    CODINST NOMBREINSTITUCI~ CODIGOMUNICIPIO NOMBREMUNICIPIO DEPARTAMENTO
##    <chr>   <chr>            <chr>           <chr>           <chr>       
##  1 066845  INST ALBERTO ME~ 11001           BOGOTÁ D.C.     BOGOTA      
##  2 014233  COL  SAN PEDRO ~ 68001           BUCARAMANGA     SANTANDER   
##  3 041996  COL MONTESSORI   05001           MEDELLIN        ANTIOQUIA   
##  4 025338  COL REFOUS       25214           COTA            CUNDINAMARCA
##  5 147173  COL  ANGLOCANAD~ 41001           NEIVA           HUILA       
##  6 133637  COLEGIO HERALDO~ 25817           TOCANCIPA       CUNDINAMARCA
##  7 136267  COL REUVEN FEUE~ 11001           BOGOTÁ D.C.     BOGOTA      
##  8 000596  COL GIMN LOS PI~ 05001           MEDELLIN        ANTIOQUIA   
##  9 156232  COL CALASANZ     11001           BOGOTÁ D.C.     BOGOTA      
## 10 103481  COL ABRAHAM MAS~ 25175           CHIA            CUNDINAMARCA
## # ... with 1,990 more rows, and 19 more variables: CALENDARIO <chr>,
## #   NATURALEZA <chr>, JORNADA <chr>, EVALUADOS <dbl>, PROMLECTURACRITICA <dbl>,
## #   PROMMATEMATICA <dbl>, PROMSOCIALESYCIUDADANAS <dbl>,
## #   PROMCIENCIASNATURALES <dbl>, PROMINGLES <dbl>,
## #   PROMRAZONAMIENTOCUANTITA <dbl>, PROMCOMPETENCIASCIUDADAN <dbl>,
## #   DESVLECTURACRITICA <dbl>, DESVMATEMATICA <dbl>,
## #   DESVSOCIALESYCIUDADANAS <dbl>, DESVCIENCIASNATURALES <dbl>,
## #   DESVINGLES <dbl>, DESVRAZONAMIENTOCUANTITA <dbl>,
## #   DESVCOMPETENCIASCIUDADAN <dbl>, PERIODO <chr>

Icfes2 %>% 
  arrange(DEPARTAMENTO, desc(PROMLECTURACRITICA))

## # A tibble: 2,000 x 24
##    CODINST NOMBREINSTITUCI~ CODIGOMUNICIPIO NOMBREMUNICIPIO DEPARTAMENTO
##    <chr>   <chr>            <chr>           <chr>           <chr>       
##  1 153510  COL  NAVAL AF-4~ 91001           LETICIA         AMAZONAS    
##  2 117358  I.E. SAGRADO CO~ 91001           LETICIA         AMAZONAS    
##  3 128397  I.E. INTERNADO ~ 91669           PTO SANTANDER   AMAZONAS    
##  4 065482  I.E. INDIGENA S~ 91001           LETICIA         AMAZONAS    
##  5 176198  I.E. INEM JOSE ~ 91001           LETICIA         AMAZONAS    
##  6 116897  I.E. INTERNADO ~ 91540           PUERTO NARIÑO   AMAZONAS    
##  7 087445  I.E. COLEGIO IN~ 91405           LA CHORRERA     AMAZONAS    
##  8 041996  COL MONTESSORI   05001           MEDELLIN        ANTIOQUIA   
##  9 000596  COL GIMN LOS PI~ 05001           MEDELLIN        ANTIOQUIA   
## 10 090050  COLEGIO CAMPEST~ 05615           RIONEGRO        ANTIOQUIA   
## # ... with 1,990 more rows, and 19 more variables: CALENDARIO <chr>,
## #   NATURALEZA <chr>, JORNADA <chr>, EVALUADOS <dbl>, PROMLECTURACRITICA <dbl>,
## #   PROMMATEMATICA <dbl>, PROMSOCIALESYCIUDADANAS <dbl>,
## #   PROMCIENCIASNATURALES <dbl>, PROMINGLES <dbl>,
## #   PROMRAZONAMIENTOCUANTITA <dbl>, PROMCOMPETENCIASCIUDADAN <dbl>,
## #   DESVLECTURACRITICA <dbl>, DESVMATEMATICA <dbl>,
## #   DESVSOCIALESYCIUDADANAS <dbl>, DESVCIENCIASNATURALES <dbl>,
## #   DESVINGLES <dbl>, DESVRAZONAMIENTOCUANTITA <dbl>,
## #   DESVCOMPETENCIASCIUDADAN <dbl>, PERIODO <chr>

Seleccion columnas

select(Icfes2, NOMBREMUNICIPIO, DEPARTAMENTO, PROMLECTURACRITICA)

## # A tibble: 2,000 x 3
##    NOMBREMUNICIPIO      DEPARTAMENTO PROMLECTURACRITICA
##    <chr>                <chr>                     <dbl>
##  1 BOLIVAR              CAUCA                      47.5
##  2 PUERTO TEJADA        CAUCA                      44.5
##  3 MIRAFLORES           GUAVIARE                   41  
##  4 PALMIRA              VALLE                      50.3
##  5 MALAMBO              ATLANTICO                  49.4
##  6 GACHETA              CUNDINAMARCA               49.0
##  7 GUARNE               ANTIOQUIA                  44.3
##  8 MOSQUERA             CUNDINAMARCA               46.5
##  9 SAN ANDRES SOTAVENTO CORDOBA                    40.4
## 10 CALI                 VALLE                      46.3
## # ... with 1,990 more rows

Icfes2 %>%
  select(NOMBREMUNICIPIO, DEPARTAMENTO, PROMLECTURACRITICA)

## # A tibble: 2,000 x 3
##    NOMBREMUNICIPIO      DEPARTAMENTO PROMLECTURACRITICA
##    <chr>                <chr>                     <dbl>
##  1 BOLIVAR              CAUCA                      47.5
##  2 PUERTO TEJADA        CAUCA                      44.5
##  3 MIRAFLORES           GUAVIARE                   41  
##  4 PALMIRA              VALLE                      50.3
##  5 MALAMBO              ATLANTICO                  49.4
##  6 GACHETA              CUNDINAMARCA               49.0
##  7 GUARNE               ANTIOQUIA                  44.3
##  8 MOSQUERA             CUNDINAMARCA               46.5
##  9 SAN ANDRES SOTAVENTO CORDOBA                    40.4
## 10 CALI                 VALLE                      46.3
## # ... with 1,990 more rows

Elementos o registros únicos

distinct(select(Icfes2, DEPARTAMENTO))

## # A tibble: 33 x 1
##    DEPARTAMENTO
##    <chr>       
##  1 CAUCA       
##  2 GUAVIARE    
##  3 VALLE       
##  4 ATLANTICO   
##  5 CUNDINAMARCA
##  6 ANTIOQUIA   
##  7 CORDOBA     
##  8 NARIÑO      
##  9 TOLIMA      
## 10 MAGDALENA   
## # ... with 23 more rows

Icfes2 %>% 
  select(DEPARTAMENTO) %>% 
  distinct()

## # A tibble: 33 x 1
##    DEPARTAMENTO
##    <chr>       
##  1 CAUCA       
##  2 GUAVIARE    
##  3 VALLE       
##  4 ATLANTICO   
##  5 CUNDINAMARCA
##  6 ANTIOQUIA   
##  7 CORDOBA     
##  8 NARIÑO      
##  9 TOLIMA      
## 10 MAGDALENA   
## # ... with 23 more rows

Adicionar una nueva columna

mutate(Icfes2,promTotal=(PROMLECTURACRITICA+PROMMATEMATICA+PROMINGLES)/3)

## # A tibble: 2,000 x 25
##    CODINST NOMBREINSTITUCI~ CODIGOMUNICIPIO NOMBREMUNICIPIO DEPARTAMENTO
##    <chr>   <chr>            <chr>           <chr>           <chr>       
##  1 007229  COLEGIO TECNICO~ 19100           BOLIVAR         CAUCA       
##  2 115907  I.E. POLITECNIC~ 19573           PUERTO TEJADA   CAUCA       
##  3 161810  I.E. FRANCISCO ~ 95200           MIRAFLORES      GUAVIARE    
##  4 124545  DEL VALLE        76520           PALMIRA         VALLE       
##  5 102095  INSTITUCION EDU~ 08433           MALAMBO         ATLANTICO   
##  6 008631  INST. EDUCATIVA~ 25297           GACHETA         CUNDINAMARCA
##  7 145987  I.E.R. HOJAS AN~ 05318           GUARNE          ANTIOQUIA   
##  8 174045  COL VILLA MARIA  25473           MOSQUERA        CUNDINAMARCA
##  9 166496  CENT EDUC PATIO~ 23670           SAN ANDRES SOT~ CORDOBA     
## 10 089318  LICEO LATINO     76001           CALI            VALLE       
## # ... with 1,990 more rows, and 20 more variables: CALENDARIO <chr>,
## #   NATURALEZA <chr>, JORNADA <chr>, EVALUADOS <dbl>, PROMLECTURACRITICA <dbl>,
## #   PROMMATEMATICA <dbl>, PROMSOCIALESYCIUDADANAS <dbl>,
## #   PROMCIENCIASNATURALES <dbl>, PROMINGLES <dbl>,
## #   PROMRAZONAMIENTOCUANTITA <dbl>, PROMCOMPETENCIASCIUDADAN <dbl>,
## #   DESVLECTURACRITICA <dbl>, DESVMATEMATICA <dbl>,
## #   DESVSOCIALESYCIUDADANAS <dbl>, DESVCIENCIASNATURALES <dbl>,
## #   DESVINGLES <dbl>, DESVRAZONAMIENTOCUANTITA <dbl>,
## #   DESVCOMPETENCIASCIUDADAN <dbl>, PERIODO <chr>, promTotal <dbl>

Icfes2 %>% 
  mutate(promTotal=(PROMLECTURACRITICA+PROMMATEMATICA+PROMINGLES)/3)

## # A tibble: 2,000 x 25
##    CODINST NOMBREINSTITUCI~ CODIGOMUNICIPIO NOMBREMUNICIPIO DEPARTAMENTO
##    <chr>   <chr>            <chr>           <chr>           <chr>       
##  1 007229  COLEGIO TECNICO~ 19100           BOLIVAR         CAUCA       
##  2 115907  I.E. POLITECNIC~ 19573           PUERTO TEJADA   CAUCA       
##  3 161810  I.E. FRANCISCO ~ 95200           MIRAFLORES      GUAVIARE    
##  4 124545  DEL VALLE        76520           PALMIRA         VALLE       
##  5 102095  INSTITUCION EDU~ 08433           MALAMBO         ATLANTICO   
##  6 008631  INST. EDUCATIVA~ 25297           GACHETA         CUNDINAMARCA
##  7 145987  I.E.R. HOJAS AN~ 05318           GUARNE          ANTIOQUIA   
##  8 174045  COL VILLA MARIA  25473           MOSQUERA        CUNDINAMARCA
##  9 166496  CENT EDUC PATIO~ 23670           SAN ANDRES SOT~ CORDOBA     
## 10 089318  LICEO LATINO     76001           CALI            VALLE       
## # ... with 1,990 more rows, and 20 more variables: CALENDARIO <chr>,
## #   NATURALEZA <chr>, JORNADA <chr>, EVALUADOS <dbl>, PROMLECTURACRITICA <dbl>,
## #   PROMMATEMATICA <dbl>, PROMSOCIALESYCIUDADANAS <dbl>,
## #   PROMCIENCIASNATURALES <dbl>, PROMINGLES <dbl>,
## #   PROMRAZONAMIENTOCUANTITA <dbl>, PROMCOMPETENCIASCIUDADAN <dbl>,
## #   DESVLECTURACRITICA <dbl>, DESVMATEMATICA <dbl>,
## #   DESVSOCIALESYCIUDADANAS <dbl>, DESVCIENCIASNATURALES <dbl>,
## #   DESVINGLES <dbl>, DESVRAZONAMIENTOCUANTITA <dbl>,
## #   DESVCOMPETENCIASCIUDADAN <dbl>, PERIODO <chr>, promTotal <dbl>
…
