…
# Con readxl
Icfes <- read_xlsx(path = "ICFES20152.xlsx")
```

Para cargar los archivos de esta manera es necesario que se encuentren alojados en la carpeta de trabajo que puede verificar con el comand `getwd()`, y para asignar una nuava ruta se utiliza el comando `setwd()`. Una funci√≥n muy √∫til para buscar carpetas es `choose.dir()`, y para seleccionar una archivo espec√≠fico `file.choose()`.

```r
Icfes
```

```
## # A tibble: 12,162 x 24
##    CODINST NOMBREINSTITUCI~ CODIGOMUNICIPIO NOMBREMUNICIPIO DEPARTAMENTO
##                                                
##  1 142133  I.E. INTERNADO ~ 91263           EL ENCANTO      AMAZONAS    
##  2 087445  I.E. COLEGIO IN~ 91405           LA CHORRERA     AMAZONAS    
##  3 117127  I.E. INTERNADO ~ 91407           LA PEDRERA      AMAZONAS    
##  4 019109  I.E. ESCUELA NO~ 91001           LETICIA         AMAZONAS    
##  5 038919  I.E. INEM JOSE ~ 91001           LETICIA         AMAZONAS    
##  6 065482  I.E. INDIGENA S~ 91001           LETICIA         AMAZONAS    
##  7 065490  COL FEMENINO MA~ 91001           LETICIA         AMAZONAS    
##  8 087429  COL CRISTO REY   91001           LETICIA         AMAZONAS    
##  9 093229  I.E. COLEGIO TE~ 91001           LETICIA         AMAZONAS    
## 10 117358  I.E. SAGRADO CO~ 91001           LETICIA         AMAZONAS    
## # ... with 12,152 more rows, and 19 more variables: CALENDARIO ,
## #   NATURALEZA , JORNADA , EVALUADOS ,
## #   PROMLECTURACRITICA , PROMMATEMATICA ,
## #   PROMSOCIALESYCIUDADANAS , PROMCIENCIASNATURALES ,
## #   PROMINGLES , PROMRAZONAMIENTOCUANTITA ,
## #   PROMCOMPETENCIASCIUDADAN , DESVLECTURACRITICA ,
## #   DESVMATEMATICA , DESVSOCIALESYCIUDADANAS ,
## #   DESVCIENCIASNATURALES , DESVINGLES ,
## #   DESVRAZONAMIENTOCUANTITA , DESVCOMPETENCIASCIUDADAN ,
…
library(dplyr)
Icfes2 <- tbl_df(Icfes[aux,])
```

Filtrar una base de datos

```r
filter(Icfes2, DEPARTAMENTO == "ANTIOQUIA",
       NOMBREMUNICIPIO == "MEDELLIN")
```

```
## # A tibble: 31 x 24
##    CODINST NOMBREINSTITUCI~ CODIGOMUNICIPIO NOMBREMUNICIPIO DEPARTAMENTO
##                                                
##  1 099481  INST EDUC CARAC~ 05001           MEDELLIN        ANTIOQUIA   
##  2 194530  SEC ESC SANTA C~ 05001           MEDELLIN        ANTIOQUIA   
##  3 127019  COL BARRIO BLAN~ 05001           MEDELLIN        ANTIOQUIA   
##  4 059188  INST EDUC JOSE ~ 05001           MEDELLIN        ANTIOQUIA   
##  5 132233  COL PEDAG CENPI  05001           MEDELLIN        ANTIOQUIA   
##  6 086082  INST EDUC PEDRO~ 05001           MEDELLIN        ANTIOQUIA   
##  7 118851  INST EDUC GABRI~ 05001           MEDELLIN        ANTIOQUIA   
##  8 119958  INST EDUC MATER~ 05001           MEDELLIN        ANTIOQUIA   
##  9 145631  SEC ESC SAN JOSE 05001           MEDELLIN        ANTIOQUIA   
## 10 108282  INST EDUC FRANC~ 05001           MEDELLIN        ANTIOQUIA   
## # ... with 21 more rows, and 19 more variables: CALENDARIO ,
## #   NATURALEZA , JORNADA , EVALUADOS ,
## #   PROMLECTURACRITICA , PROMMATEMATICA ,
## #   PROMSOCIALESYCIUDADANAS , PROMCIENCIASNATURALES ,
## #   PROMINGLES , PROMRAZONAMIENTOCUANTITA ,
## #   PROMCOMPETENCIASCIUDADAN , DESVLECTURACRITICA ,
## #   DESVMATEMATICA , DESVSOCIALESYCIUDADANAS ,
## #   DESVCIENCIASNATURALES , DESVINGLES ,
## #   DESVRAZONAMIENTOCUANTITA , DESVCOMPETENCIASCIUDADAN ,
## #   PERIODO 
```

```r
Icfes2 %>% filter(DEPARTAMENTO == "ANTIOQUIA",
                  NOMBREMUNICIPIO == "MEDELLIN")
```

```
## # A tibble: 31 x 24
##    CODINST NOMBREINSTITUCI~ CODIGOMUNICIPIO NOMBREMUNICIPIO DEPARTAMENTO
##                                                
##  1 099481  INST EDUC CARAC~ 05001           MEDELLIN        ANTIOQUIA   
##  2 194530  SEC ESC SANTA C~ 05001           MEDELLIN        ANTIOQUIA   
##  3 127019  COL BARRIO BLAN~ 05001           MEDELLIN        ANTIOQUIA   
##  4 059188  INST EDUC JOSE ~ 05001           MEDELLIN        ANTIOQUIA   
##  5 132233  COL PEDAG CENPI  05001           MEDELLIN        ANTIOQUIA   
##  6 086082  INST EDUC PEDRO~ 05001           MEDELLIN        ANTIOQUIA   
##  7 118851  INST EDUC GABRI~ 05001           MEDELLIN        ANTIOQUIA   
##  8 119958  INST EDUC MATER~ 05001           MEDELLIN        ANTIOQUIA   
##  9 145631  SEC ESC SAN JOSE 05001           MEDELLIN        ANTIOQUIA   
## 10 108282  INST EDUC FRANC~ 05001           MEDELLIN        ANTIOQUIA   
## # ... with 21 more rows, and 19 more variables: CALENDARIO ,
## #   NATURALEZA , JORNADA , EVALUADOS ,
## #   PROMLECTURACRITICA , PROMMATEMATICA ,
## #   PROMSOCIALESYCIUDADANAS , PROMCIENCIASNATURALES ,
## #   PROMINGLES , PROMRAZONAMIENTOCUANTITA ,
## #   PROMCOMPETENCIASCIUDADAN , DESVLECTURACRITICA ,
## #   DESVMATEMATICA , DESVSOCIALESYCIUDADANAS ,
## #   DESVCIENCIASNATURALES , DESVINGLES ,
## #   DESVRAZONAMIENTOCUANTITA , DESVCOMPETENCIASCIUDADAN ,
…
Ordenar la base de datos

```r
arrange(Icfes2, DEPARTAMENTO)
```

```
## # A tibble: 1,000 x 24
##    CODINST NOMBREINSTITUCI~ CODIGOMUNICIPIO NOMBREMUNICIPIO DEPARTAMENTO
##                                                
##  1 135517  I.E. FRANCISCO ~ 91001           LETICIA         AMAZONAS    
##  2 065490  COL FEMENINO MA~ 91001           LETICIA         AMAZONAS    
##  3 038919  I.E. INEM JOSE ~ 91001           LETICIA         AMAZONAS    
##  4 067413  COL FEDERICO SI~ 05088           BELLO           ANTIOQUIA   
##  5 090134  I.E. PIEDRECITAS 05837           TURBO           ANTIOQUIA   
##  6 148395  COLEGIO PIAMONTE 05120           CACERES         ANTIOQUIA   
##  7 070904  LIC FONTIDUE—O ~ 05088           BELLO           ANTIOQUIA   
##  8 099481  INST EDUC CARAC~ 05001           MEDELLIN        ANTIOQUIA   
##  9 166090  I. E. NUESTRA S~ 05321           GUATAPE         ANTIOQUIA   
## 10 194530  SEC ESC SANTA C~ 05001           MEDELLIN        ANTIOQUIA   
## # ... with 990 more rows, and 19 more variables: CALENDARIO ,
## #   NATURALEZA , JORNADA , EVALUADOS ,
## #   PROMLECTURACRITICA , PROMMATEMATICA ,
## #   PROMSOCIALESYCIUDADANAS , PROMCIENCIASNATURALES ,
## #   PROMINGLES , PROMRAZONAMIENTOCUANTITA ,
## #   PROMCOMPETENCIASCIUDADAN , DESVLECTURACRITICA ,
## #   DESVMATEMATICA , DESVSOCIALESYCIUDADANAS ,
## #   DESVCIENCIASNATURALES , DESVINGLES ,
## #   DESVRAZONAMIENTOCUANTITA , DESVCOMPETENCIASCIUDADAN ,
## #   PERIODO 
```

```r
arrange(Icfes2, DEPARTAMENTO, NOMBREINSTITUCION)
```

```
## # A tibble: 1,000 x 24
##    CODINST NOMBREINSTITUCI~ CODIGOMUNICIPIO NOMBREMUNICIPIO DEPARTAMENTO
##                                                
##  1 065490  COL FEMENINO MA~ 91001           LETICIA         AMAZONAS    
##  2 135517  I.E. FRANCISCO ~ 91001           LETICIA         AMAZONAS    
##  3 038919  I.E. INEM JOSE ~ 91001           LETICIA         AMAZONAS    
##  4 154930  COL  FE Y ALEGR~ 05088           BELLO           ANTIOQUIA   
##  5 108175  COL  FE Y ALEGR~ 05088           BELLO           ANTIOQUIA   
##  6 127019  COL BARRIO BLAN~ 05001           MEDELLIN        ANTIOQUIA   
##  7 000141  COL CALASANZ     05001           MEDELLIN        ANTIOQUIA   
##  8 107789  COL CAMPESTRE L~ 05001           MEDELLIN        ANTIOQUIA   
##  9 067413  COL FEDERICO SI~ 05088           BELLO           ANTIOQUIA   
## 10 135467  COL GENTE UNIDA~ 05001           MEDELLIN        ANTIOQUIA   
## # ... with 990 more rows, and 19 more variables: CALENDARIO ,
## #   NATURALEZA , JORNADA , EVALUADOS ,
## #   PROMLECTURACRITICA , PROMMATEMATICA ,
## #   PROMSOCIALESYCIUDADANAS , PROMCIENCIASNATURALES ,
## #   PROMINGLES , PROMRAZONAMIENTOCUANTITA ,
## #   PROMCOMPETENCIASCIUDADAN , DESVLECTURACRITICA ,
## #   DESVMATEMATICA , DESVSOCIALESYCIUDADANAS ,
## #   DESVCIENCIASNATURALES , DESVINGLES ,
## #   DESVRAZONAMIENTOCUANTITA , DESVCOMPETENCIASCIUDADAN ,
## #   PERIODO 
```

```r
arrange(Icfes2, PROMLECTURACRITICA)
```

```
## # A tibble: 1,000 x 24
##    CODINST NOMBREINSTITUCI~ CODIGOMUNICIPIO NOMBREMUNICIPIO DEPARTAMENTO
##                                                
##  1 077834  CENT EDUC CAJAS~ 68001           BUCARAMANGA     SANTANDER   
##  2 084368  INST SER INTERN~ 76001           CALI            VALLE       
##  3 196931  ESCOL RUR INDIG~ 27150           CARMEN DEL DAR~ CHOCO       
##  4 134494  LICEO JOAQUIN F~ 13430           MAGANGUE        BOLIVAR     
##  5 157131  INSTITUTO TECNI~ 68322           GUAPOTA         SANTANDER   
##  6 175042  INST  AGRO  PIO~ 66572           PUEBLO RICO     RISARALDA   
##  7 151225  I.E. EMBERA ATR~ 05873           VIGIA DEL FUER~ ANTIOQUIA   
##  8 175349  I.E  CLAVELLINA~ 68051           ARATOCA         SANTANDER   
##  9 090647  INSTITUCION EDU~ 13001           CARTAGENA       BOLIVAR     
## 10 170068  I.E. INDIGENIST~ 05837           TURBO           ANTIOQUIA   
## # ... with 990 more rows, and 19 more variables: CALENDARIO ,
## #   NATURALEZA , JORNADA , EVALUADOS ,
## #   PROMLECTURACRITICA , PROMMATEMATICA ,
## #   PROMSOCIALESYCIUDADANAS , PROMCIENCIASNATURALES ,
## #   PROMINGLES , PROMRAZONAMIENTOCUANTITA ,
## #   PROMCOMPETENCIASCIUDADAN , DESVLECTURACRITICA ,
## #   DESVMATEMATICA , DESVSOCIALESYCIUDADANAS ,
## #   DESVCIENCIASNATURALES , DESVINGLES ,
## #   DESVRAZONAMIENTOCUANTITA , DESVCOMPETENCIASCIUDADAN ,
## #   PERIODO 
```

```r
arrange(Icfes2, desc(PROMLECTURACRITICA))
```

```
## # A tibble: 1,000 x 24
##    CODINST NOMBREINSTITUCI~ CODIGOMUNICIPIO NOMBREMUNICIPIO DEPARTAMENTO
##                                                
##  1 048298  ASPAEN LICEO TA~ 76001           CALI            VALLE       
##  2 170837  CENTRO EDUCATIV~ 08001           BARRANQUILLA    ATLANTICO   
##  3 012047  COL CALASANZ     54001           CUCUTA          NORTE SANTA~
##  4 086793  GIMN CAMP SAN F~ 25214           COTA            CUNDINAMARCA
##  5 021584  FUND COL MAYOR ~ 11001           BOGOT¡ D.C.     BOGOTA      
##  6 096537  COLEGIO LA NUEV~ 13836           TURBACO         BOLIVAR     
##  7 056416  LIC HYPATIA      11001           BOGOT¡ D.C.     BOGOTA      
##  8 000760  INST JORGE ROBL~ 05001           MEDELLIN        ANTIOQUIA   
##  9 133934  AMERICAN SCHOOL~ 15001           TUNJA           BOYACA      
## 10 009720  COLEGIO CLARETI~ 41001           NEIVA           HUILA       
## # ... with 990 more rows, and 19 more variables: CALENDARIO ,
## #   NATURALEZA , JORNADA , EVALUADOS ,
## #   PROMLECTURACRITICA , PROMMATEMATICA ,
## #   PROMSOCIALESYCIUDADANAS , PROMCIENCIASNATURALES ,
## #   PROMINGLES , PROMRAZONAMIENTOCUANTITA ,
## #   PROMCOMPETENCIASCIUDADAN , DESVLECTURACRITICA ,
## #   DESVMATEMATICA , DESVSOCIALESYCIUDADANAS ,
## #   DESVCIENCIASNATURALES , DESVINGLES ,
## #   DESVRAZONAMIENTOCUANTITA , DESVCOMPETENCIASCIUDADAN ,
## #   PERIODO 
```

```r
Icfes2 %>% 
  arrange(DEPARTAMENTO, desc(PROMLECTURACRITICA))
```

```
## # A tibble: 1,000 x 24
##    CODINST NOMBREINSTITUCI~ CODIGOMUNICIPIO NOMBREMUNICIPIO DEPARTAMENTO
##                                                
##  1 038919  I.E. INEM JOSE ~ 91001           LETICIA         AMAZONAS    
##  2 065490  COL FEMENINO MA~ 91001           LETICIA         AMAZONAS    
##  3 135517  I.E. FRANCISCO ~ 91001           LETICIA         AMAZONAS    
##  4 000760  INST JORGE ROBL~ 05001           MEDELLIN        ANTIOQUIA   
##  5 059238  COL PARROQUIAL ~ 05088           BELLO           ANTIOQUIA   
##  6 000141  COL CALASANZ     05001           MEDELLIN        ANTIOQUIA   
##  7 107789  COL CAMPESTRE L~ 05001           MEDELLIN        ANTIOQUIA   
##  8 002014  COLEGIO LA INMA~ 05360           ITAGUI          ANTIOQUIA   
##  9 001693  COLEGIO COOPERA~ 05212           COPACABANA      ANTIOQUIA   
## 10 001313  INSTITUTO UNIBAN 05045           APARTADO        ANTIOQUIA   
## # ... with 990 more rows, and 19 more variables: CALENDARIO ,
## #   NATURALEZA , JORNADA , EVALUADOS ,
## #   PROMLECTURACRITICA , PROMMATEMATICA ,
## #   PROMSOCIALESYCIUDADANAS , PROMCIENCIASNATURALES ,
## #   PROMINGLES , PROMRAZONAMIENTOCUANTITA ,
## #   PROMCOMPETENCIASCIUDADAN , DESVLECTURACRITICA ,
## #   DESVMATEMATICA , DESVSOCIALESYCIUDADANAS ,
## #   DESVCIENCIASNATURALES , DESVINGLES ,
## #   DESVRAZONAMIENTOCUANTITA , DESVCOMPETENCIASCIUDADAN ,
## #   PERIODO 
```

Seleccion de columnas

```r
select(Icfes2, NOMBREMUNICIPIO, DEPARTAMENTO, PROMLECTURACRITICA)
```

```
## # A tibble: 1,000 x 3
##    NOMBREMUNICIPIO       DEPARTAMENTO PROMLECTURACRITICA
##                                          
##  1 EL ROSARIO            NARI—O                     45.5
##  2 YOPAL                 CASANARE                   42  
##  3 SUBACHOQUE            CUNDINAMARCA               57.8
##  4 CHITA                 BOYACA                     46.8
##  5 DAGUA                 VALLE                      48.5
##  6 FACATATIVA            CUNDINAMARCA               49.2
##  7 SANTA MARTA           MAGDALENA                  45.7
##  8 TORO                  VALLE                      43.8
##  9 ARMENIA               QUINDIO                    48  
## 10 SANTA ROSA DE VITERBO BOYACA                     54.1
## # ... with 990 more rows
```

```r
Icfes2 %>%
  select(NOMBREMUNICIPIO, DEPARTAMENTO, PROMLECTURACRITICA)
```

```
## # A tibble: 1,000 x 3
##    NOMBREMUNICIPIO       DEPARTAMENTO PROMLECTURACRITICA
##                                          
##  1 EL ROSARIO            NARI—O                     45.5
##  2 YOPAL                 CASANARE                   42  
##  3 SUBACHOQUE            CUNDINAMARCA               57.8
##  4 CHITA                 BOYACA                     46.8
##  5 DAGUA                 VALLE                      48.5
##  6 FACATATIVA            CUNDINAMARCA               49.2
##  7 SANTA MARTA           MAGDALENA                  45.7
##  8 TORO                  VALLE                      43.8
##  9 ARMENIA               QUINDIO                    48  
## 10 SANTA ROSA DE VITERBO BOYACA                     54.1
## # ... with 990 more rows
```

Elementos o registros √∫nicos

```r
distinct(select(Icfes2, DEPARTAMENTO))
```

```
## # A tibble: 31 x 1
##    DEPARTAMENTO
##           
##  1 NARI—O      
##  2 CASANARE    
##  3 CUNDINAMARCA
##  4 BOYACA      
##  5 VALLE       
##  6 MAGDALENA   
##  7 QUINDIO     
##  8 HUILA       
##  9 TOLIMA      
## 10 CESAR       
## # ... with 21 more rows
```

```r
Icfes2 %>% 
  select(DEPARTAMENTO) %>% 
  distinct()
```

```
## # A tibble: 31 x 1
##    DEPARTAMENTO
##           
##  1 NARI—O      
##  2 CASANARE    
##  3 CUNDINAMARCA
##  4 BOYACA      
##  5 VALLE       
##  6 MAGDALENA   
##  7 QUINDIO     
##  8 HUILA       
##  9 TOLIMA      
## 10 CESAR       
## # ... with 21 more rows
```

Adicionar una nueva columna

```r
mutate(Icfes2,promTotal=(PROMLECTURACRITICA+PROMMATEMATICA+PROMINGLES)/3)
```

```
## # A tibble: 1,000 x 25
##    CODINST NOMBREINSTITUCI~ CODIGOMUNICIPIO NOMBREMUNICIPIO DEPARTAMENTO
##                                                
##  1 163519  I.E. SANTA ROSA~ 52256           EL ROSARIO      NARI—O      
##  2 133314  CARLOS LLERAS R~ 85001           YOPAL           CASANARE    
##  3 009282  COL EUCARISTICO~ 25769           SUBACHOQUE      CUNDINAMARCA
##  4 005041  INS ED TEC Y AC~ 15183           CHITA           BOYACA      
##  5 129635  CAMILO TORRES    76233           DAGUA           VALLE       
##  6 104133  I.E.M JOHN FITZ~ 25269           FACATATIVA      CUNDINAMARCA
##  7 117770  INSTITUTO NUEVA~ 47001           SANTA MARTA     MAGDALENA   
##  8 101147  LA INMACULADA    76823           TORO            VALLE       
##  9 119537  CIUDADELA EDUCA~ 63001           ARMENIA         QUINDIO     
## 10 158675  I.E. RAFAEL REY~ 15693           SANTA ROSA DE ~ BOYACA      
## # ... with 990 more rows, and 20 more variables: CALENDARIO ,
## #   NATURALEZA , JORNADA , EVALUADOS ,
## #   PROMLECTURACRITICA , PROMMATEMATICA ,
## #   PROMSOCIALESYCIUDADANAS , PROMCIENCIASNATURALES ,
## #   PROMINGLES , PROMRAZONAMIENTOCUANTITA ,
## #   PROMCOMPETENCIASCIUDADAN , DESVLECTURACRITICA ,
## #   DESVMATEMATICA , DESVSOCIALESYCIUDADANAS ,
## #   DESVCIENCIASNATURALES , DESVINGLES ,
## #   DESVRAZONAMIENTOCUANTITA , DESVCOMPETENCIASCIUDADAN ,
## #   PERIODO , promTotal 
```

```r
Icfes2 %>% 
  mutate(promTotal=(PROMLECTURACRITICA+PROMMATEMATICA+PROMINGLES)/3)
```

```
## # A tibble: 1,000 x 25
##    CODINST NOMBREINSTITUCI~ CODIGOMUNICIPIO NOMBREMUNICIPIO DEPARTAMENTO
##                                                
##  1 163519  I.E. SANTA ROSA~ 52256           EL ROSARIO      NARI—O      
##  2 133314  CARLOS LLERAS R~ 85001           YOPAL           CASANARE    
##  3 009282  COL EUCARISTICO~ 25769           SUBACHOQUE      CUNDINAMARCA
##  4 005041  INS ED TEC Y AC~ 15183           CHITA           BOYACA      
##  5 129635  CAMILO TORRES    76233           DAGUA           VALLE       
##  6 104133  I.E.M JOHN FITZ~ 25269           FACATATIVA      CUNDINAMARCA
##  7 117770  INSTITUTO NUEVA~ 47001           SANTA MARTA     MAGDALENA   
##  8 101147  LA INMACULADA    76823           TORO            VALLE       
##  9 119537  CIUDADELA EDUCA~ 63001           ARMENIA         QUINDIO     
## 10 158675  I.E. RAFAEL REY~ 15693           SANTA ROSA DE ~ BOYACA      
## # ... with 990 more rows, and 20 more variables: CALENDARIO ,
## #   NATURALEZA , JORNADA , EVALUADOS ,
## #   PROMLECTURACRITICA , PROMMATEMATICA ,
## #   PROMSOCIALESYCIUDADANAS , PROMCIENCIASNATURALES ,
## #   PROMINGLES , PROMRAZONAMIENTOCUANTITA ,
## #   PROMCOMPETENCIASCIUDADAN , DESVLECTURACRITICA ,
## #   DESVMATEMATICA , DESVSOCIALESYCIUDADANAS ,
## #   DESVCIENCIASNATURALES , DESVINGLES ,
## #   DESVRAZONAMIENTOCUANTITA , DESVCOMPETENCIASCIUDADAN ,
## #   PERIODO , promTotal 
```

```r
transmute(Icfes2,promTotal=(PROMLECTURACRITICA+PROMMATEMATICA+PROMINGLES)/3)
```

```
## # A tibble: 1,000 x 1
##    promTotal
##        
##  1      45.2
##  2      43.4
##  3      63.2
##  4      47.7
##  5      46.1
##  6      49.5
##  7      45.3
##  8      44.0
##  9      48.6
## 10      56.9
## # ... with 990 more rows
```

```r
Icfes2 %>% 
  transmute(promTotal=(PROMLECTURACRITICA+PROMMATEMATICA+PROMINGLES)/3)
```

```
## # A tibble: 1,000 x 1
##    promTotal
##        
##  1      45.2
##  2      43.4
##  3      63.2
##  4      47.7
##  5      46.1
##  6      49.5
##  7      45.3
##  8      44.0
##  9      48.6
## 10      56.9
## # ... with 990 more rows
```
…
```
## # A tibble: 1 x 1
##   `mean(PROMMATEMATICA)`
##                    
## 1                   48.5
```

Agrupaci√≥n

```r
group_by(Icfes2, DEPARTAMENTO)
```

```
## # A tibble: 1,000 x 24
## # Groups:   DEPARTAMENTO [31]
##    CODINST NOMBREINSTITUCI~ CODIGOMUNICIPIO NOMBREMUNICIPIO DEPARTAMENTO
##                                                
##  1 163519  I.E. SANTA ROSA~ 52256           EL ROSARIO      NARI—O      
##  2 133314  CARLOS LLERAS R~ 85001           YOPAL           CASANARE    
##  3 009282  COL EUCARISTICO~ 25769           SUBACHOQUE      CUNDINAMARCA
##  4 005041  INS ED TEC Y AC~ 15183           CHITA           BOYACA      
##  5 129635  CAMILO TORRES    76233           DAGUA           VALLE       
##  6 104133  I.E.M JOHN FITZ~ 25269           FACATATIVA      CUNDINAMARCA
##  7 117770  INSTITUTO NUEVA~ 47001           SANTA MARTA     MAGDALENA   
##  8 101147  LA INMACULADA    76823           TORO            VALLE       
##  9 119537  CIUDADELA EDUCA~ 63001           ARMENIA         QUINDIO     
## 10 158675  I.E. RAFAEL REY~ 15693           SANTA ROSA DE ~ BOYACA      
## # ... with 990 more rows, and 19 more variables: CALENDARIO ,
## #   NATURALEZA , JORNADA , EVALUADOS ,
## #   PROMLECTURACRITICA , PROMMATEMATICA ,
## #   PROMSOCIALESYCIUDADANAS , PROMCIENCIASNATURALES ,
## #   PROMINGLES , PROMRAZONAMIENTOCUANTITA ,
## #   PROMCOMPETENCIASCIUDADAN , DESVLECTURACRITICA ,
## #   DESVMATEMATICA , DESVSOCIALESYCIUDADANAS ,
## #   DESVCIENCIASNATURALES , DESVINGLES ,
## #   DESVRAZONAMIENTOCUANTITA , DESVCOMPETENCIASCIUDADAN ,
…
